\relax 
\citation{harris}
\citation{x_corr}
\@writefile{toc}{\contentsline {section}{\numberline {1}Introduction}{1}}
\@writefile{toc}{\contentsline {section}{\numberline {2}Tracking the patch across the image}{1}}
\@writefile{toc}{\contentsline {subsection}{\numberline {2.1}Corner Detection}{1}}
\@writefile{toc}{\contentsline {subsection}{\numberline {2.2}Normalized cross-correlation}{1}}
\citation{surf}
\citation{surf}
\citation{surf_3}
\citation{surf}
\citation{surf}
\citation{surf_2}
\citation{surf}
\citation{surf}
\citation{surf_2}
\citation{handout}
\@writefile{toc}{\contentsline {subsection}{\numberline {2.3}SURF : Speeded Up Robust Features}{2}}
\@writefile{toc}{\contentsline {subsection}{\numberline {2.4}General}{2}}
\citation{handout}
\@writefile{toc}{\contentsline {section}{\numberline {3}Plane Identification}{3}}
\@writefile{toc}{\contentsline {section}{\numberline {4}Stereo Algorithm Performance Statiscits}{3}}
\@writefile{toc}{\contentsline {subsection}{\numberline {4.1}Calculations}{3}}
\@writefile{toc}{\contentsline {subsection}{\numberline {4.2}Plotting Statistics}{4}}
\@writefile{toc}{\contentsline {subsubsection}{\numberline {4.2.1}RMS versus Average Coordinate}{4}}
\@writefile{toc}{\contentsline {subsubsection}{\numberline {4.2.2}Residuals of Middle Image}{4}}
\@writefile{toc}{\contentsline {subsubsection}{\numberline {4.2.3}Outlier Count}{4}}
\@writefile{toc}{\contentsline {section}{\numberline {5}Results}{4}}
\@writefile{toc}{\contentsline {subsection}{\numberline {5.1}Patch Tracking}{4}}
\@writefile{toc}{\contentsline {subsubsection}{\numberline {5.1.1}SURF}{4}}
\@writefile{lof}{\contentsline {figure}{\numberline {1}{\ignorespaces The figure shows how the patch is successfully tracked from initial to a subsequent position in the \textit  {XMove} dataset\relax }}{5}}
\@writefile{lof}{\contentsline {figure}{\numberline {2}{\ignorespaces The figure depicts how the SURF algorithm fails on the \textit  {XMove} dataset, resulting in the tracked patch being identified as being partially outside of the frame (erroneous tracking). The red rectangle outline denotes the tracked (and analyzed) patch location and size. \relax }}{5}}
\@writefile{lof}{\contentsline {figure}{\numberline {3}{\ignorespaces The figure shows how the patch is scaled down in size via the SURF algorithm as it moves away from the camera in the \textit  {ZMove} dataset.\relax }}{6}}
\@writefile{toc}{\contentsline {subsubsection}{\numberline {5.1.2}Normal Cross-Correlation}{6}}
\@writefile{lof}{\contentsline {figure}{\numberline {4}{\ignorespaces This image shows the cross-correlation coefficient of the patch in figure 5a\hbox {} plotted for all x and y values of the image in figure 5b\hbox {}\relax }}{7}}
\providecommand*\caption@xref[2]{\@setref\relax\@undefined{#1}}
\newlabel{fig:ccmatch}{{4}{7}}
\newlabel{fig:cc1}{{5a}{7}}
\newlabel{sub@fig:cc1}{{a}{7}}
\newlabel{fig:cc2}{{5b}{7}}
\newlabel{sub@fig:cc2}{{b}{7}}
\@writefile{lof}{\contentsline {figure}{\numberline {5}{\ignorespaces The figure shows images show a sucessful track of the center of the patch using Normal Cross-Correlation from the first to the second frame of the \textit  {ZMove} dataset\relax }}{7}}
\@writefile{lof}{\contentsline {figure}{\numberline {6}{\ignorespaces This image shows the 10th frame of the \textit  {ZMove} dataset\relax }}{8}}
\newlabel{fig:cc10}{{6}{8}}
\@writefile{toc}{\contentsline {subsubsection}{\numberline {5.1.3}Harris Corner Matcher}{8}}
\@writefile{lof}{\contentsline {figure}{\numberline {7}{\ignorespaces This image shows the (trace) position of the patch on the first frame of the \textit  {XMove} dataset\relax }}{8}}
\newlabel{fig:h1}{{7}{8}}
\@writefile{lof}{\contentsline {figure}{\numberline {8}{\ignorespaces This image shows the match points between frames 1 and 2 of the \textit  {XMove} dataset\relax }}{9}}
\newlabel{fig:hm}{{8}{9}}
\newlabel{fig:h2}{{9a}{9}}
\newlabel{sub@fig:h2}{{a}{9}}
\newlabel{fig:h3}{{9b}{9}}
\newlabel{sub@fig:h3}{{b}{9}}
\@writefile{lof}{\contentsline {figure}{\numberline {9}{\ignorespaces The images shows a sucessful tracking of the same patch from the second to the $6$th frame in the \textit  {XMove} dataset\relax }}{9}}
\newlabel{fig:h5}{{10a}{10}}
\newlabel{sub@fig:h5}{{a}{10}}
\newlabel{fig:h6}{{10b}{10}}
\newlabel{sub@fig:h6}{{b}{10}}
\@writefile{lof}{\contentsline {figure}{\numberline {10}{\ignorespaces The images shows a tracking of the same patch from the third to ther fourth frame in the \textit  {ZMove} dataset\relax }}{10}}
\@writefile{lof}{\contentsline {figure}{\numberline {11}{\ignorespaces This image shows the 10th frame of the \textit  {ZMove} dataset which is visible not centred at the same point as the figures 10a\hbox {} and 10b\hbox {}\relax }}{10}}
\newlabel{fig:h7}{{11}{10}}
\@writefile{toc}{\contentsline {subsection}{\numberline {5.2}Stereo Algorithm}{10}}
\@writefile{toc}{\contentsline {subsubsection}{\numberline {5.2.1}Overview}{10}}
\@writefile{toc}{\contentsline {subsubsection}{\numberline {5.2.2}Results on the \textit  {ZMove dataset}}{11}}
\@writefile{lof}{\contentsline {figure}{\numberline {12}{\ignorespaces The residuals and related patch for the \textit  {ZMove} dataset\relax }}{12}}
\@writefile{lof}{\contentsline {figure}{\numberline {13}{\ignorespaces The RMS and Outlier data for the \textit  {ZMove} dataset\relax }}{12}}
\@writefile{toc}{\contentsline {subsubsection}{\numberline {5.2.3}Results on the \textit  {ZStatic dataset}}{12}}
\@writefile{lof}{\contentsline {figure}{\numberline {14}{\ignorespaces The residuals and related patch for the \textit  {ZStatic} dataset\relax }}{13}}
\@writefile{lof}{\contentsline {figure}{\numberline {15}{\ignorespaces The RMS and Outlier data for the \textit  {ZStatic} dataset\relax }}{13}}
\@writefile{toc}{\contentsline {subsubsection}{\numberline {5.2.4}Results on the \textit  {XMove dataset}}{13}}
\@writefile{lof}{\contentsline {figure}{\numberline {16}{\ignorespaces The residuals and related patch for the \textit  {XMove} dataset\relax }}{14}}
\@writefile{lof}{\contentsline {figure}{\numberline {17}{\ignorespaces The RMS and Outlier data for the \textit  {XMove} dataset\relax }}{14}}
\@writefile{toc}{\contentsline {subsubsection}{\numberline {5.2.5}Results on the \textit  {YMove dataset}}{14}}
\@writefile{lof}{\contentsline {figure}{\numberline {18}{\ignorespaces The residuals and related patch for the \textit  {YMove} dataset\relax }}{15}}
\@writefile{lof}{\contentsline {figure}{\numberline {19}{\ignorespaces The RMS and Outlier data for the \textit  {YMove} dataset\relax }}{15}}
\@writefile{toc}{\contentsline {section}{\numberline {6}Data Tables}{15}}
\@writefile{lof}{\contentsline {figure}{\numberline {20}{\ignorespaces Table with all of the statistics for the \textit  {XMove} Dataset\relax }}{16}}
\@writefile{lof}{\contentsline {figure}{\numberline {21}{\ignorespaces Table with all of the statistics for the \textit  {YMove} Dataset\relax }}{16}}
\@writefile{lof}{\contentsline {figure}{\numberline {22}{\ignorespaces Table with all of the statistics for the \textit  {ZMove} Dataset\relax }}{16}}
\@writefile{lof}{\contentsline {figure}{\numberline {23}{\ignorespaces Table with all of the statistics for the \textit  {ZStatic} Dataset. Please note that the files differ by only one frame, resulting in the need for them to be renamed due to sort order.\relax }}{17}}
\bibcite{handout}{1}
\bibcite{plane_extraction}{2}
\bibcite{harris}{3}
\bibcite{harris_1}{4}
\bibcite{x_corr}{5}
\bibcite{surf}{6}
\bibcite{surf_2}{7}
\bibcite{surf_3}{8}
\@writefile{toc}{\contentsline {section}{\numberline {7}Appendix}{19}}
\@writefile{toc}{\contentsline {subsection}{\numberline {7.1}Code Listings}{19}}
